…
```r
aoo_eoo_diff %>% 
    group_by(className, cat_diff) %>% 
    summarize(sum = n())
```

```
## # A tibble: 25 × 3
## # Groups:   className [5]
##    className cat_diff                        sum
##    <chr>     <chr>                         <int>
##  1 amphibia  Critical to Endangered          420
##  2 amphibia  Endangered to Near Threatened   141
##  3 amphibia  Endangered to Vulnerable        343
##  4 amphibia  No Change                       647
##  5 amphibia  Vulnerable to Near Threatened    72
##  6 aves      Critical to Endangered          113
##  7 aves      Endangered to Near Threatened   112
##  8 aves      Endangered to Vulnerable        185
##  9 aves      No Change                       490
## 10 aves      Vulnerable to Near Threatened   137
## # ℹ 15 more rows
```
…
