…
<img src="EOO_no_exit_iucn_files/figure-html/nes-category-1.png" style="display: block; margin: auto;" />

Realm of Counts of EOO_NES

Realms of each Conservation Reliant Species

```r
eoo_nes_df %>% 
  group_by(Realms) %>% 
  summarise(Count = n()) %>% 
  arrange(-Count)
```

```
## # A tibble: 26 × 2
##    Realms                 Count
##    <chr>                  <int>
##  1 Neotropical              650
##  2 Oriental                 603
##  3 Panamanian               502
##  4 Afrotropical             397
##  5 Madagascan               293
##  6 Oceanina                 165
##  7 Neotropical;Panamanian   155
##  8 Nearctic                 149
##  9 Australian                82
## 10 Sino-Japanese             65
## # ℹ 16 more rows
```
…
